…
#Selected Values

```r
sel_values
```

```
## # A tibble: 79 x 9
##    `NE Sample`    Effort `Wetland No` `Running Water N~ `Running Water SQ~
##    <chr>          <chr>  <chr>        <chr>             <chr>             
##  1 Rheidol 3 2004 5      30           22                332               
##  2 Towy 1998      8      26           26                331               
##  3 Tywi 1998      7      23           23                322               
##  4 Towy 3 2003    10     30           28                314               
##  5 Towy 4 2002    8      36           36                311               
##  6 Towy 6 2003    9      30           30                310               
##  7 Towy 1 2003    6      32           31                303               
##  8 Wye 1998       9      36           30                297               
##  9 Severn 1 2002  12     31           30                297               
## 10 Usk 1998       13     37           33                294               
## # ... with 69 more rows, and 4 more variables: `Running Water SQS` <chr>,
## #   `Marsh No` <chr>, `Marsh SQI` <chr>, `Marsh SQS` <chr>
```
